…
``` r
library(readxl) #Opens 'readxl' package to make it easy to get data out of Excel and put it into R
PulseP2 <- read_excel("PulseP2.xls") #Reads the excel sheet 'PulseP2'
View(PulseP2) #Opens the 'PulseP2' dataset in R 

library(readxl) #Opens 'readxl' package to make it easy to get data out of Excel and put it into R
Blood <- read_excel("Blood.xlsx") #Reads the excel sheet 'Blood'
View(Blood) #Opens the 'Blood' dataset in R

library("dplyr") #Opens 'dplyr' package
health <- Blood %>% inner_join(PulseP2, by=c("Smoke"= "Smoke")) #Joins together the two datasets 'PulseP2' and 'Blood' by the common variable 'Smoke'
health #Returns the new data/table 'health' which is 'PulseP2' and 'Blood' joined together on the basis of the common variable 'Smoke'
```

    ## # A tibble: 55,120 x 10
    ##    SystolicBP Smoke Overwt  ...1 Active  Rest Sex    Exercise   Hgt   Wgt
    ##         <dbl> <dbl>  <dbl> <dbl>  <dbl> <dbl> <chr>     <dbl> <dbl> <dbl>
    ##  1        133     0      2     1     97    78 female        1    63   119
    ##  2        133     0      2     3     88    62 male          3    72   175
    ##  3        133     0      2     4    106    74 male          3    72   170
    ##  4        133     0      2     5     78    63 female        3    67   125
    ##  5        133     0      2     6    109    65 male          3    74   188
    ##  6        133     0      2     7     66    43 female        3    67   140
    ##  7        133     0      2     8     68    65 male          3    70   200
    ##  8        133     0      2     9    100    63 male          1    70   165
    ##  9        133     0      2    10     70    59 female        2    65   115
    ## 10        133     0      2    11     98    57 male          3    72   175
    ## # … with 55,110 more rows
…
