…
``` r
library(readxl) #Opens 'readxl' package to make it easy to get data out of Excel and put it into R
Pulse <- read_excel("Pulse.xlsx") #Reads the excel sheet 'Pulse'
View(Pulse) #Opens the 'Pulse' dataset in R 

library(readxl) #Opens 'readxl' package to make it easy to get data out of Excel and put it into R
Blood <- read_excel("Blood.xlsx") #Reads the excel sheet 'Blood'
View(Blood) #Opens the 'Blood' dataset in R

library("dplyr") #Opens 'dplyr' package
health <- Blood %>% inner_join(Pulse, by=c("Smoke"= "Smoke")) #Joins together the two datasets 'Pulse' and 'Blood' by the common variable 'Smoke'
health #Returns the new data/table 'health' which is 'Pulse' and 'Blood' joined together on the basis of the common variable 'Smoke'
```

    ## # A tibble: 55,120 x 9
    ##    SystolicBP Smoke Overwt Active  Rest   Sex Exercise   Hgt   Wgt
    ##         <dbl> <dbl>  <dbl>  <dbl> <dbl> <dbl>    <dbl> <dbl> <dbl>
    ##  1        133     0      2     97    78     1        1    63   119
    ##  2        133     0      2     88    62     0        3    72   175
    ##  3        133     0      2    106    74     0        3    72   170
    ##  4        133     0      2     78    63     1        3    67   125
    ##  5        133     0      2    109    65     0        3    74   188
    ##  6        133     0      2     66    43     1        3    67   140
    ##  7        133     0      2     68    65     0        3    70   200
    ##  8        133     0      2    100    63     0        1    70   165
    ##  9        133     0      2     70    59     1        2    65   115
    ## 10        133     0      2     98    57     0        3    72   175
    ## # … with 55,110 more rows
…
**3. Summary Statistics:**

``` r
library("dplyr") #Opens 'dplyr' package 
filter(health, Smoke == "1") #Filters the dataset to only show data that applies to "smokers"
```

    ## # A tibble: 6,916 x 9
    ##    SystolicBP Smoke Overwt Active  Rest   Sex Exercise   Hgt   Wgt
    ##         <dbl> <dbl>  <dbl>  <dbl> <dbl> <dbl>    <dbl> <dbl> <dbl>
    ##  1        115     1      0     82    68     0        3    70   225
    ##  2        115     1      0     86    68     0        2    73   195
    ##  3        115     1      0     87    72     0        2    70   173
    ##  4        115     1      0    102    77     0        2    72   200
    ##  5        115     1      0     80    67     1        2    65   133
    ##  6        115     1      0     99    78     0        3    71   165
    ##  7        115     1      0    125    80     1        3    65   125
    ##  8        115     1      0    133    92     0        1    69   185
    ##  9        115     1      0     91    65     0        2    67   150
    ## 10        115     1      0     96    67     1        2    64   165
    ## # … with 6,906 more rows

``` r
filter(health, SystolicBP > 140) #Filters the dataset to only show data that applies to individuals with a Systolic blood pressure over 140 
```

    ## # A tibble: 25,940 x 9
    ##    SystolicBP Smoke Overwt Active  Rest   Sex Exercise   Hgt   Wgt
    ##         <dbl> <dbl>  <dbl>  <dbl> <dbl> <dbl>    <dbl> <dbl> <dbl>
    ##  1        154     1      2     82    68     0        3    70   225
    ##  2        154     1      2     86    68     0        2    73   195
    ##  3        154     1      2     87    72     0        2    70   173
    ##  4        154     1      2    102    77     0        2    72   200
    ##  5        154     1      2     80    67     1        2    65   133
    ##  6        154     1      2     99    78     0        3    71   165
    ##  7        154     1      2    125    80     1        3    65   125
    ##  8        154     1      2    133    92     0        1    69   185
    ##  9        154     1      2     91    65     0        2    67   150
    ## 10        154     1      2     96    67     1        2    64   165
    ## # … with 25,930 more rows

``` r
select(health, type = "Sex",
     keys = c("Hgt", "Wgt"),
     keytype = "Smoke") #Returns a new table in which the type is 'Sex,' the two keys for comparison are 'Hgt' and 'Wgt,' and the key type is whether or not the individual is a smoker or not
```

    ## # A tibble: 55,120 x 4
    ##     type keys1 keys2 keytype
    ##    <dbl> <dbl> <dbl>   <dbl>
    ##  1     1    63   119       0
    ##  2     0    72   175       0
    ##  3     0    72   170       0
    ##  4     1    67   125       0
    ##  5     0    74   188       0
    ##  6     1    67   140       0
    ##  7     0    70   200       0
    ##  8     0    70   165       0
    ##  9     1    65   115       0
    ## 10     0    72   175       0
    ## # … with 55,110 more rows

``` r
select(health, Overwt, keys = NULL, keytype = NULL) #Returns only the column 'Overwt' from the 'Blood' dataset 
```

    ## # A tibble: 55,120 x 1
    ##    Overwt
    ##     <dbl>
    ##  1      2
    ##  2      2
    ##  3      2
    ##  4      2
    ##  5      2
    ##  6      2
    ##  7      2
    ##  8      2
    ##  9      2
    ## 10      2
    ## # … with 55,110 more rows

``` r
arrange(health, desc(Active)) #Returns the 'Pulse' dataset, however, the column 'Active' is being arranged in descending order (high to low)
```

    ## # A tibble: 55,120 x 9
    ##    SystolicBP Smoke Overwt Active  Rest   Sex Exercise   Hgt   Wgt
    ##         <dbl> <dbl>  <dbl>  <dbl> <dbl> <dbl>    <dbl> <dbl> <dbl>
    ##  1        133     0      2    154    82     0        1    71   250
    ##  2        132     0      2    154    82     0        1    71   250
    ##  3        133     0      1    154    82     0        1    71   250
    ##  4        138     0      1    154    82     0        1    71   250
    ##  5        133     0      2    154    82     0        1    71   250
    ##  6         67     0      0    154    82     0        1    71   250
    ##  7        138     0      0    154    82     0        1    71   250
    ##  8        140     0      1    154    82     0        1    71   250
    ##  9        107     0      0    154    82     0        1    71   250
    ## 10        131     0      1    154    82     0        1    71   250
    ## # … with 55,110 more rows

``` r
arrange(health, SystolicBP) #Returns the 'Blood' dataset, however, the column 'SystolicBP' is being arranged in ascending order (low to high) 
```

    ## # A tibble: 55,120 x 9
    ##    SystolicBP Smoke Overwt Active  Rest   Sex Exercise   Hgt   Wgt
    ##         <dbl> <dbl>  <dbl>  <dbl> <dbl> <dbl>    <dbl> <dbl> <dbl>
    ##  1         67     0      0     97    78     1        1    63   119
    ##  2         67     0      0     88    62     0        3    72   175
    ##  3         67     0      0    106    74     0        3    72   170
    ##  4         67     0      0     78    63     1        3    67   125
    ##  5         67     0      0    109    65     0        3    74   188
    ##  6         67     0      0     66    43     1        3    67   140
    ##  7         67     0      0     68    65     0        3    70   200
    ##  8         67     0      0    100    63     0        1    70   165
    ##  9         67     0      0     70    59     1        2    65   115
    ## 10         67     0      0     98    57     0        3    72   175
    ## # … with 55,110 more rows

``` r
groupped <- health %>% group_by(Active) #Groups by 'Active.' This does not change how the data looks, it just lists the data by how it is grouped
groupped #Returns 'groupped' data
```

    ## # A tibble: 55,120 x 9
    ## # Groups:   Active [73]
    ##    SystolicBP Smoke Overwt Active  Rest   Sex Exercise   Hgt   Wgt
    ##         <dbl> <dbl>  <dbl>  <dbl> <dbl> <dbl>    <dbl> <dbl> <dbl>
    ##  1        133     0      2     97    78     1        1    63   119
    ##  2        133     0      2     88    62     0        3    72   175
    ##  3        133     0      2    106    74     0        3    72   170
    ##  4        133     0      2     78    63     1        3    67   125
    ##  5        133     0      2    109    65     0        3    74   188
    ##  6        133     0      2     66    43     1        3    67   140
    ##  7        133     0      2     68    65     0        3    70   200
    ##  8        133     0      2    100    63     0        1    70   165
    ##  9        133     0      2     70    59     1        2    65   115
    ## 10        133     0      2     98    57     0        3    72   175
    ## # … with 55,110 more rows

``` r
health %>% mutate(Smoke1=recode(Smoke, 
                         `0`="nonsmoker",
                         `1`="smoker")) #Returns the 'health' data but with a new variable 'Smoke1.' This is a new categorical variable that turns '0' into 'nonsmoker' and '1 into 'smoker'
```

    ## # A tibble: 55,120 x 10
    ##    SystolicBP Smoke Overwt Active  Rest   Sex Exercise   Hgt   Wgt Smoke1   
    ##         <dbl> <dbl>  <dbl>  <dbl> <dbl> <dbl>    <dbl> <dbl> <dbl> <chr>    
    ##  1        133     0      2     97    78     1        1    63   119 nonsmoker
    ##  2        133     0      2     88    62     0        3    72   175 nonsmoker
    ##  3        133     0      2    106    74     0        3    72   170 nonsmoker
    ##  4        133     0      2     78    63     1        3    67   125 nonsmoker
    ##  5        133     0      2    109    65     0        3    74   188 nonsmoker
    ##  6        133     0      2     66    43     1        3    67   140 nonsmoker
    ##  7        133     0      2     68    65     0        3    70   200 nonsmoker
    ##  8        133     0      2    100    63     0        1    70   165 nonsmoker
    ##  9        133     0      2     70    59     1        2    65   115 nonsmoker
    ## 10        133     0      2     98    57     0        3    72   175 nonsmoker
    ## # … with 55,110 more rows

``` r
health %>% mutate(Sex1=recode(Sex, 
                         `0`="male",
                         `1`="female")) #Returns the 'health' data but with a new variable 'Sex1.' This is a new categorical variable that turns '0' into 'male' and '1' into 'female'
```

    ## # A tibble: 55,120 x 10
    ##    SystolicBP Smoke Overwt Active  Rest   Sex Exercise   Hgt   Wgt Sex1  
    ##         <dbl> <dbl>  <dbl>  <dbl> <dbl> <dbl>    <dbl> <dbl> <dbl> <chr> 
    ##  1        133     0      2     97    78     1        1    63   119 female
    ##  2        133     0      2     88    62     0        3    72   175 male  
    ##  3        133     0      2    106    74     0        3    72   170 male  
    ##  4        133     0      2     78    63     1        3    67   125 female
    ##  5        133     0      2    109    65     0        3    74   188 male  
    ##  6        133     0      2     66    43     1        3    67   140 female
    ##  7        133     0      2     68    65     0        3    70   200 male  
    ##  8        133     0      2    100    63     0        1    70   165 male  
    ##  9        133     0      2     70    59     1        2    65   115 female
    ## 10        133     0      2     98    57     0        3    72   175 male  
    ## # … with 55,110 more rows
…
    ## # A tibble: 1 x 1
    ##   SystolicBP
    ##        <dbl>
    ## 1    7746796

``` r
pulses <- health %>% group_by(Active, Rest) #Groups information on participants based on their resting and active pulses
    pulses1 <- pulses %>% summarise(n = n()) #Returns information on the current group size within the variables 'Active' and 'Rest'
    pulses1 #Returns new table created from above
```

    ## # A tibble: 205 x 3
    ## # Groups:   Active [73]
    ##    Active  Rest     n
    ##     <dbl> <dbl> <int>
    ##  1     51    54   234
    ##  2     56    52   234
    ##  3     60    54   234
    ##  4     60    55   234
    ##  5     60    58   234
    ##  6     61    53   234
    ##  7     63    53   234
    ##  8     64    48   234
    ##  9     64    60   234
    ## 10     65    54   234
    ## # … with 195 more rows
…
``` r
range(health$Smoke) #Gives the range of variable 'Smoke' within the dataset 'health'
```

    ## [1] 0 1

``` r
sexstatus <- health %>%
  mutate(Sex1 = case_when(Sex == 0 ~ "male",
                              Sex == 1 ~ "female")) #Returns a table with a new categorical variable "Sex" with the options of: female and male

sexstatus %>% group_by(Sex1) #Groups by the new categorical variable 'Sex1' within the data 'sexstatus'
```

    ## # A tibble: 55,120 x 10
    ## # Groups:   Sex1 [2]
    ##    SystolicBP Smoke Overwt Active  Rest   Sex Exercise   Hgt   Wgt Sex1  
    ##         <dbl> <dbl>  <dbl>  <dbl> <dbl> <dbl>    <dbl> <dbl> <dbl> <chr> 
    ##  1        133     0      2     97    78     1        1    63   119 female
    ##  2        133     0      2     88    62     0        3    72   175 male  
    ##  3        133     0      2    106    74     0        3    72   170 male  
    ##  4        133     0      2     78    63     1        3    67   125 female
    ##  5        133     0      2    109    65     0        3    74   188 male  
    ##  6        133     0      2     66    43     1        3    67   140 female
    ##  7        133     0      2     68    65     0        3    70   200 male  
    ##  8        133     0      2    100    63     0        1    70   165 male  
    ##  9        133     0      2     70    59     1        2    65   115 female
    ## 10        133     0      2     98    57     0        3    72   175 male  
    ## # … with 55,110 more rows
…
